{
  "cls": [
    "blp.attributes",
    "blp.branch",
    "blp.card",
    "blp.card_bin",
    "blp.client",
    "blp.corporation",
    "blp.eft_pos",
    "blp.eft_pos_group",
    "blp.establishment",
    "blp.establishment_group",
    "blp.establishment_grp_rel",
    "blp.loyalty_account_extension",
    "blp.loyalty_account_group",
    "blp.loyalty_account_product",
    "blp.pool_definition",
    "blp.product_account",
    "blp.product_account_type",
    "blp.product_code",
    "blp.proxy_card_mapping",
    "blp.scheme",
    "blp.scheme_counter",
    "blp.scheme_criteria",
    "blp.scheme_rule_master",
    "blp.terminal_scheme_pool",
    "blp.transaction_code",
    "blp.loyalty_account",
    "blp.loyalty_account_balance",
    "blp.award_transaction_history",
    "blp.redemption_transaction",
    "blp.adjustment_transaction"
  ],
  "rms": [
    "rmsdb.app_authentication",
    "rmsdb.blocked_deals_rewards",
    "rmsdb.blocked_merchant_pin",
    "rmsdb.blocked_stamps_rewards",
    "rmsdb.collections_master",
    "rmsdb.deal_coupon_codes",
    "rmsdb.deals_collections",
    "rmsdb.deals_master",
    "rmsdb.merchant_collections",
    "rmsdb.merchant_master",
    "rmsdb.merchant_spoc",
    "rmsdb.merchant_stores",
    "rmsdb.milestone",
    "rmsdb.promotions_collections",
    "rmsdb.promotions_master",
    "rmsdb.reward_promotion",
    "rmsdb.rewards_deals",
    "rmsdb.rewards_milestone",
    "rmsdb.rewards_stamps",
    "rmsdb.stamp_cards_collections",
    "rmsdb.stamp_cards_master",
    "rmsdb.static_content_master",
    "rmsdb.store_echoss_estamps",
    "rmsdb.user_deal_records",
    "rmsdb.user_stamping_records",
    "rmsdb.user_table"
  ],
  "mob": [
    "mobilityprod.address",
    "mobilityprod.address_audit",
    "mobilityprod.app_configure",
    "mobilityprod.app_configure_audit",
	"mobilityprod.card_replacement_transaction",
    "mobilityprod.comm_auth",
    "mobilityprod.comm_auth_audit",
    "mobilityprod.email_otp",
    "mobilityprod.email_otp_audit",
    "mobilityprod.email_template",
    "mobilityprod.email_template_audit",
    "mobilityprod.frequently_asked",
    "mobilityprod.ntucp_postalcode",
    "mobilityprod.promo_code_transactions",
    "mobilityprod.promo_codes",
    "mobilityprod.user_audit",
    "mobilityprod.user_auth",
    "mobilityprod.user_auth_audit",
    "mobilityprod.user_detail",
    "mobilityprod.user_meta",
    "mobilityprod.user_meta_audit",
    "mobilityprod.user_otp",
    "mobilityprod.user_otp_audit",
    "mobilityprod.user_transaction_log",
    "mobilityprod.user_transaction_record"
  ],
  "org_fact": [
    "dbo.PRODUCT",
    "dbo.PORDER",
    "dbo.PORDDET",
    "dbo.PRODMULT",
    "dbo.MULTIUOM",
    "dbo.CUSTOMER",
    "dbo.SORDER",
    "dbo.SORDDET",
    "dbo.BILL",
    "dbo.BILLDET",
    "dbo.BILLIN",
    "dbo.BLLINDET"
  ]
}


